covid
…
covid_in <- readr::read_csv('data/covid/date,geoid,state,cases,cases_avg,cases_a.csv')

## Rows: 51246 Columns: 9
## -- Column specification --------------------------------------------------------
## Delimiter: ","
## chr  (2): geoid, state
## dbl  (6): cases, cases_avg, cases_avg_per_100k, deaths, deaths_avg, deaths_a...
## date (1): date
## 
## i Use `spec()` to retrieve the full column specification for this data.
## i Specify the column types or set `show_col_types = FALSE` to quiet this message.

covid_in

## # A tibble: 51,246 x 9
##    date       geoid  state      cases cases_avg cases_a~1 deaths death~2 death~3
##    <date>     <chr>  <chr>      <dbl>     <dbl>     <dbl>  <dbl>   <dbl>   <dbl>
##  1 2020-01-21 USA-53 Washington     1      0.14         0      0       0       0
##  2 2020-01-22 USA-53 Washington     0      0.14         0      0       0       0
##  3 2020-01-23 USA-53 Washington     0      0.14         0      0       0       0
##  4 2020-01-24 USA-53 Washington     0      0.14         0      0       0       0
##  5 2020-01-24 USA-17 Illinois       1      0.14         0      0       0       0
##  6 2020-01-25 USA-53 Washington     0      0.14         0      0       0       0
##  7 2020-01-25 USA-17 Illinois       0      0.14         0      0       0       0
##  8 2020-01-25 USA-06 California     1      0.14         0      0       0       0
##  9 2020-01-26 USA-53 Washington     0      0.14         0      0       0       0
## 10 2020-01-26 USA-17 Illinois       0      0.14         0      0       0       0
## # ... with 51,236 more rows, and abbreviated variable names
## #   1: cases_avg_per_100k, 2: deaths_avg, 3: deaths_avg_per_100k
## # i Use `print(n = ...)` to see more rows
…
terrains <- readr::read_csv('data/covid/covid_states.csv')

## Rows: 56 Columns: 2
## -- Column specification --------------------------------------------------------
## Delimiter: ","
## chr (2): state, terrain
## 
## i Use `spec()` to retrieve the full column specification for this data.
## i Specify the column types or set `show_col_types = FALSE` to quiet this message.

terrains

## # A tibble: 56 x 2
##    state                terrain 
##    <chr>                <chr>   
##  1 Alabama              mainland
##  2 Alaska               mainland
##  3 American Samoa       Island  
##  4 Arizona              mainland
##  5 Arkansas             mainland
##  6 California           mainland
##  7 Colorado             mainland
##  8 Connecticut          mainland
##  9 Delaware             mainland
## 10 District of Columbia mainland
## # ... with 46 more rows
## # i Use `print(n = ...)` to see more rows

covid_terrains <- covid_in %>% 
  inner_join(terrains, by = c('state'))

covid_terrains 

## # A tibble: 51,246 x 10
##    date       geoid  state  cases cases~1 cases~2 deaths death~3 death~4 terrain
##    <date>     <chr>  <chr>  <dbl>   <dbl>   <dbl>  <dbl>   <dbl>   <dbl> <chr>  
##  1 2020-01-21 USA-53 Washi~     1    0.14       0      0       0       0 mainla~
##  2 2020-01-22 USA-53 Washi~     0    0.14       0      0       0       0 mainla~
##  3 2020-01-23 USA-53 Washi~     0    0.14       0      0       0       0 mainla~
##  4 2020-01-24 USA-53 Washi~     0    0.14       0      0       0       0 mainla~
##  5 2020-01-24 USA-17 Illin~     1    0.14       0      0       0       0 mainla~
##  6 2020-01-25 USA-53 Washi~     0    0.14       0      0       0       0 mainla~
##  7 2020-01-25 USA-17 Illin~     0    0.14       0      0       0       0 mainla~
##  8 2020-01-25 USA-06 Calif~     1    0.14       0      0       0       0 mainla~
##  9 2020-01-26 USA-53 Washi~     0    0.14       0      0       0       0 mainla~
## 10 2020-01-26 USA-17 Illin~     0    0.14       0      0       0       0 mainla~
## # ... with 51,236 more rows, and abbreviated variable names 1: cases_avg,
## #   2: cases_avg_per_100k, 3: deaths_avg, 4: deaths_avg_per_100k
## # i Use `print(n = ...)` to see more rows

covid_terrains <- covid_terrains %>% 
  group_by(date, terrain) %>% 
  mutate(
    trn_cases_avg_per_100k = mean(cases_avg_per_100k, na.rm=T)
    , trn_deaths_avg_per_100k = mean(deaths_avg_per_100k, na.rm=T)
    ) %>% 
  ungroup()

covid_terrains

## # A tibble: 51,246 x 12
##    date       geoid  state  cases cases~1 cases~2 deaths death~3 death~4 terrain
##    <date>     <chr>  <chr>  <dbl>   <dbl>   <dbl>  <dbl>   <dbl>   <dbl> <chr>  
##  1 2020-01-21 USA-53 Washi~     1    0.14       0      0       0       0 mainla~
##  2 2020-01-22 USA-53 Washi~     0    0.14       0      0       0       0 mainla~
##  3 2020-01-23 USA-53 Washi~     0    0.14       0      0       0       0 mainla~
##  4 2020-01-24 USA-53 Washi~     0    0.14       0      0       0       0 mainla~
##  5 2020-01-24 USA-17 Illin~     1    0.14       0      0       0       0 mainla~
##  6 2020-01-25 USA-53 Washi~     0    0.14       0      0       0       0 mainla~
##  7 2020-01-25 USA-17 Illin~     0    0.14       0      0       0       0 mainla~
##  8 2020-01-25 USA-06 Calif~     1    0.14       0      0       0       0 mainla~
##  9 2020-01-26 USA-53 Washi~     0    0.14       0      0       0       0 mainla~
## 10 2020-01-26 USA-17 Illin~     0    0.14       0      0       0       0 mainla~
## # ... with 51,236 more rows, 2 more variables: trn_cases_avg_per_100k <dbl>,
## #   trn_deaths_avg_per_100k <dbl>, and abbreviated variable names 1: cases_avg,
## #   2: cases_avg_per_100k, 3: deaths_avg, 4: deaths_avg_per_100k
## # i Use `print(n = ...)` to see more rows, and `colnames()` to see all variable names
…
covid_trn_lng <- covid_terrains %>% 
  select(date, terrain, trn_cases_avg_per_100k, trn_deaths_avg_per_100k) %>% 
  pivot_longer(3:4, names_to = 'metric') 

covid_trn_lng

## # A tibble: 102,492 x 4
##    date       terrain  metric                  value
##    <date>     <chr>    <chr>                   <dbl>
##  1 2020-01-21 mainland trn_cases_avg_per_100k      0
##  2 2020-01-21 mainland trn_deaths_avg_per_100k     0
##  3 2020-01-22 mainland trn_cases_avg_per_100k      0
##  4 2020-01-22 mainland trn_deaths_avg_per_100k     0
##  5 2020-01-23 mainland trn_cases_avg_per_100k      0
##  6 2020-01-23 mainland trn_deaths_avg_per_100k     0
##  7 2020-01-24 mainland trn_cases_avg_per_100k      0
##  8 2020-01-24 mainland trn_deaths_avg_per_100k     0
##  9 2020-01-24 mainland trn_cases_avg_per_100k      0
## 10 2020-01-24 mainland trn_deaths_avg_per_100k     0
## # ... with 102,482 more rows
## # i Use `print(n = ...)` to see more rows
…
